Regression for Microbiome Data:Multinomial Mixture Models
…
icu_et_dmm_assignments
```

]

.pull-right[

```
## # A tibble: 42 x 6
##    specimen             m1_prob  m2_prob   m3_prob m4_prob assignment
##    <chr>                  <dbl>    <dbl>     <dbl>   <dbl>      <int>
##  1 VAP.001.ET.20130726 3.44e-13 1.00e+ 0 0.              0          2
##  2 VAP.001.ET.20130729 2.68e-24 1.00e+ 0 0.              0          2
##  3 VAP.001.ET.20130731 1.37e-15 1.00e+ 0 0.              0          2
##  4 VAP.002.ET.20130729 1.00e+ 0 2.30e-31 0.              0          1
##  5 VAP.002.ET.20130731 1.00e+ 0 4.43e-36 0.              0          1
##  6 VAP.002.ET.20130802 1.00e+ 0 3.42e-31 0.              0          1
##  7 VAP.002.ET.20130805 3.09e-19 1.00e+ 0 0.              0          2
##  8 VAP.003.ET.20130730 1.52e-22 1.00e+ 0 5.23e-310       0          2
##  9 VAP.004.ET.20130808 1.00e+ 0 1.65e-69 0.              0          1
## 10 VAP.005.ET.20130814 9.92e-28 4.01e-12 1.00e+  0       0          3
## #  with 32 more rows
```
…
